# NBA_Team_Wins_Multivariate_Regression
Files associated with the multivariate regression model to predict the number of wins for each NBA team
```{r}
#Loading data into R
library(readxl)
myData<-read_excel("C:/Users/Michael Osei/Downloads/NBA Team Stats.xlsx")
myData
# A tibble: 30 x 27
   Team       GP     W     L `WIN%`   MIN   PTS   FGM   FGA `FG%` `3PM` `3PA` `3P%`   FTM   FTA `FT%`  OREB  DREB   REB
   <chr>   <dbl> <dbl> <dbl>  <dbl> <dbl> <dbl> <dbl> <dbl> <dbl> <dbl> <dbl> <dbl> <dbl> <dbl> <dbl> <dbl> <dbl> <dbl>
 1 Phoeni~    82    64    18  0.78   48.1  115.  43.7  90.1  48.5  11.6  31.9  36.4  15.9  19.9  79.7   9.8  35.5  45.3
 2 Memphi~    82    56    26  0.683  48.2  116.  43.5  94.4  46.1  11.5  32.7  35.3  17    23.1  73.4  14.1  35    49.2
 3 Golden~    82    53    29  0.646  48.1  111   40.5  86.4  46.9  14.3  39.4  36.4  15.6  20.3  76.9   9.8  35.7  45.5
 4 Miami ~    82    53    29  0.646  48.4  110   39.6  84.8  46.7  13.6  35.8  37.9  17.3  21.4  80.8   9.8  33.9  43.7
 5 Dallas~    82    52    30  0.634  48.2  108   39.3  85.1  46.1  13.1  37.4  35    16.4  21.2  77.1   9.3  33.8  43  
 6 Boston~    82    51    31  0.622  48.5  112.  40.7  87.4  46.6  13.2  37.1  35.6  17    20.9  81.6  10.5  35.5  46.1
 7 Milwau~    82    51    31  0.622  48.2  116.  41.8  89.4  46.8  14.1  38.4  36.6  17.8  22.9  77.6  10.2  36.5  46.7
 8 Philad~    82    51    31  0.622  48.3  110.  39.4  84.5  46.6  11.6  31.8  36.4  19.6  23.8  82.1   8.5  33.8  42.3
 9 Utah J~    82    49    33  0.598  48.1  114.  40.6  86.2  47.1  14.5  40.3  36    17.9  23.4  76.7  10.8  35.6  46.3
10 Denver~    82    48    34  0.585  48.3  113.  41.7  86.3  48.3  12.7  35.9  35.3  16.7  21    79.5   9.2  34.9  44.1
# ... with 20 more rows, and 8 more variables: AST <dbl>, TOV <dbl>, STL <dbl>, BLK <dbl>, BLKA <dbl>, PF <dbl>,
#   PFD <dbl>, `=+/-` <dbl>
```
…
